<?xml version="1.0" encoding="UTF-8" standalone="no"?>
<!-- Created with Inkscape (http://www.inkscape.org/) -->

<svg
   width="70.158768mm"
   height="46.613293mm"
   viewBox="0 0 70.158768 46.613293"
   version="1.1"
   id="svg1"
   inkscape:version="1.3.2 (091e20ef0f, 2023-11-25, custom)"
   sodipodi:docname="arrow.svg"
   xmlns:inkscape="http://www.inkscape.org/namespaces/inkscape"
   xmlns:sodipodi="http://sodipodi.sourceforge.net/DTD/sodipodi-0.dtd"
   xmlns="http://www.w3.org/2000/svg"
   xmlns:svg="http://www.w3.org/2000/svg">
  <sodipodi:namedview
     id="namedview1"
     pagecolor="#505050"
     bordercolor="#eeeeee"
     borderopacity="1"
     inkscape:showpageshadow="0"
     inkscape:pageopacity="0"
     inkscape:pagecheckerboard="0"
     inkscape:deskcolor="#d1d1d1"
     inkscape:document-units="mm"
     showguides="true"
     inkscape:zoom="1.4614334"
     inkscape:cx="258.30805"
     inkscape:cy="104.00748"
     inkscape:window-width="2560"
     inkscape:window-height="1364"
     inkscape:window-x="1920"
     inkscape:window-y="0"
     inkscape:window-maximized="1"
     inkscape:current-layer="layer1">
    <sodipodi:guide
       position="13.152764,329.65787"
       orientation="0,-1"
       id="guide2"
       inkscape:locked="false" />
  </sodipodi:namedview>
  <defs
     id="defs1" />
  <g
     inkscape:label="Layer 1"
     inkscape:groupmode="layer"
     id="layer1"
     transform="translate(-65.961889,-60.381136)">
    <rect
       style="fill:#fefefe;fill-opacity:1;stroke:#ffffff;stroke-width:0.486348"
       id="rect1"
       width="41.705967"
       height="19.766022"
       x="66.205063"
       y="73.785446"
       rx="0"
       ry="0" />
    <path
       id="rect2"
       style="fill:#fefefe;fill-opacity:1;stroke:#ffffff;stroke-width:0.79375"
       d="M 104.20603,61.158043 135.44224,83.75308 104.20603,106.2201 Z"
       sodipodi:nodetypes="cccc" />
  </g>
</svg>
